\relax 
\abx@aux@sortscheme{nty}
\abx@aux@sortnamekeyscheme{global}
\@writefile{toc}{\boolfalse {citerequest}\boolfalse {citetracker}\boolfalse {pagetracker}\boolfalse {backtracker}\relax }
\@writefile{lof}{\boolfalse {citerequest}\boolfalse {citetracker}\boolfalse {pagetracker}\boolfalse {backtracker}\relax }
\@writefile{lot}{\boolfalse {citerequest}\boolfalse {citetracker}\boolfalse {pagetracker}\boolfalse {backtracker}\relax }
\abx@aux@cite{bones_structure}
\abx@aux@cite{Bone_ashman}
\abx@aux@cite{Bone_reilly}
\@writefile{toc}{\contentsline {section}{\numberline {1}Bio-materials}{2}}
\@writefile{toc}{\contentsline {subsection}{\numberline {1.1}Bone}{2}}
\@writefile{toc}{\contentsline {subsubsection}{\numberline {1.1.1}Bone structure}{2}}
\@writefile{toc}{\contentsline {subsubsection}{\numberline {1.1.2}Bone mechanics and modelling}{2}}
\@writefile{toc}{\contentsline {subsection}{\numberline {1.2}Collagen}{3}}
\@writefile{toc}{\contentsline {subsection}{\numberline {1.3}Keratin}{3}}
\abx@aux@cite{ZHANG201270}
\abx@aux@cite{MechPropertiesAcharai}
\abx@aux@cite{krauss}
\abx@aux@cite{Scutes}
\@writefile{toc}{\contentsline {section}{\numberline {2}Shell structure}{4}}
\@writefile{toc}{\contentsline {subsection}{\numberline {2.1}Macrostructures}{4}}
\@writefile{toc}{\contentsline {subsubsection}{\numberline {2.1.1}Skeletal structure}{4}}
\@writefile{lof}{\contentsline {figure}{\numberline {1}{\ignorespaces Annotated dry skeleton of African tortoise carapace\relax }}{4}}
\providecommand*\caption@xref[2]{\@setref\relax\@undefined{#1}}
\newlabel{fig:annotated_bones}{{1}{4}}
\@writefile{toc}{\contentsline {subsubsection}{\numberline {2.1.2}Keratinous structure}{4}}
\@writefile{lof}{\contentsline {figure}{\numberline {2}{\ignorespaces Close up view of turtle shell suture\relax }}{5}}
\newlabel{fig:suture_zoom_in}{{2}{5}}
\@writefile{toc}{\contentsline {subsection}{\numberline {2.2}Constitute components}{5}}
\@writefile{toc}{\contentsline {subsubsection}{\numberline {2.2.1}Internal bone morphology (Pleural)}{5}}
\@writefile{lof}{\contentsline {figure}{\numberline {3}{\ignorespaces Schematic diagram of cross-section of a pleural with approximate dimensions for a carapace of length $ \sim $\SI {175}{\milli \metre }. The diagram is a recreation of a figure presented in \cite {krauss} and the dimensions are taken from \cite {MechPropertiesAcharai}. The grey areas represent bone and the black areas represent voids.\relax }}{5}}
\newlabel{fig:schem_rib}{{3}{5}}
\@writefile{toc}{\contentsline {subsubsection}{\numberline {2.2.2}Collagenous sutures}{5}}
\abx@aux@cite{keratinProp}
\newlabel{fig:comp_suture}{{4a}{6}}
\newlabel{sub@fig:comp_suture}{{(a)}{a}}
\newlabel{fig:ten_suture}{{4b}{6}}
\newlabel{sub@fig:ten_suture}{{(b)}{b}}
\@writefile{lof}{\contentsline {figure}{\numberline {4}{\ignorespaces Different configurations on sutures found in turtle shell. Sutures that most frequently experience compression (a) have a higher degree of interdigitation and have collagen fibers connecting (indicated by the red arrows) obliquely to the bone, whereas sutures that most frequently experience tension (b) are flatter and have collagen fibers that connect transversely to the bone.\relax }}{6}}
\newlabel{fig:suture_configs}{{4}{6}}
\@writefile{lof}{\contentsline {subfigure}{\numberline{(a)}{\ignorespaces {Compression figuration}}}{6}}
\@writefile{lof}{\contentsline {subfigure}{\numberline{(b)}{\ignorespaces {Tension figuration}}}{6}}
\@writefile{toc}{\contentsline {subsubsection}{\numberline {2.2.3}Keratin scutes}{6}}
\@writefile{toc}{\contentsline {section}{\numberline {3}Collagen}{7}}
\@writefile{toc}{\contentsline {section}{References}{7}}
