\relax 
\providecommand*\caption@xref[2]{\@setref\relax\@undefined{#1}}
\newlabel{fig:mod_1}{{\caption@xref {fig:mod_1}{ on input line 50}}{2}}
\newlabel{sub@fig:mod_1}{{}{2}}
\newlabel{fig:mod_2}{{\caption@xref {fig:mod_2}{ on input line 55}}{2}}
\newlabel{sub@fig:mod_2}{{a}{2}}
\newlabel{fig:mod_3}{{1c}{2}}
\newlabel{sub@fig:mod_3}{{c}{2}}
\newlabel{fig:mod_4}{{1d}{2}}
\newlabel{sub@fig:mod_4}{{d}{2}}
\newlabel{fig:suture}{{1e}{2}}
\newlabel{sub@fig:suture}{{e}{2}}
\@writefile{lof}{\contentsline {figure}{\numberline {1}{\ignorespaces Schematic drawings of different idealised models. a) section of cylindrical shell with no sutures, b) section of cylindrical shell with sutures, c) section of spherical shell with sutures, d) section of spherical shell with hexagonal bone plates connected by sutures and e) close up and cross-section of suture geometry\relax }}{2}}
\newlabel{fig:models}{{1}{2}}
